769243 988921 525
61968 157056 383
320743 599925 470
938429 196300 525
13552 263977 443
68292 213003 383
742067 495856 509
694743 931776 525
941354 313944 525
345506 667982 509
662129 97884 509
455960 232057 449
425128 567278 470
323472 307522 384
910298 568509 525
511484 466217 426
959796 92893 525
628021 903488 525
460679 164836 449
103359 504330 449
997382 167736 525
162805 607203 470
889604 233728 525
913066 589242 525
535645 787146 509
357880 108054 443
253424 731179 509
115235 936050 525
616694 869077 525
949657 590597 525
924526 202054 525
330847 887017 525
42120 187621 383
833341 945791 525
416753 854254 525
852775 681562 525
689600 188012 509
749079 235115 509
222502 40512 386
253148 961398 525
53298 171540 383
232663 522199 470
664531 589458 509
916377 603522 525
14940 630380 509
540645 141323 470
280038 402031 441
337090 133272 443
501729 86659 449
256317 569288 470
743384 776085 468
246620 213640 443
329124 291905 384
112811 804389 509
24701 853066 525
916640 459408 525
367423 158747 443
919821 574527 525
699775 57663 509
748320 953119 525
257297 866328 525
296247 563251 470
630236 62156 509
769095 345234 509
986781 570872 525
823672 669183 504
735338 385143 509
453879 106248 449
791055 887893 525
201910 326909 443
304007 442097 449
81207 520411 470
565517 816305 509
887776 511019 525
580204 289707 470
425684 618258 470
206539 696762 509
290099 338025 384
936910 13484 525
672349 998710 525
587267 715189 509
547247 37325 470
950634 974266 458
27605 665475 509
842134 304485 525
519665 569222 452
831085 444115 509
971875 146496 525
164739 105214 383
3362 522289 470
408406 517866 470
236621 870448 525
547455 218620 470
89183 22324 351
784495 33999 509
740066 398305 509
920208 860438 476
154775 783898 509
295918 451650 449
520815 224361 470
25927 455144 449
899863 213532 525
481596 678673 509
645699 296515 509
265909 852433 525
137317 70432 354
348911 210492 443
412740 183749 449
88755 546913 470
545587 186992 470
416606 292028 449
234190 493226 449
890931 395569 525
601791 748404 509
271460 804379 509
133991 130760 331
878884 895514 445
121154 502576 449
701923 614178 509
441643 586632 470
79374 812062 509
519495 192731 470
914870 752736 525
949266 389056 525
836523 619950 509
61076 73779 330
567177 707737 509
586938 410366 470
441134 757802 509
942195 872871 507
217266 340149 443
698179 416314 509
723178 775375 468
143191 262439 443
764496 42613 509
952698 985332 458
445463 955147 525
864792 434904 525
656048 945002 525
84711 325563 443
254724 533947 470
16696 369482 443
738639 661909 504
485973 174746 449
426829 928397 525
198365 400590 443
80179 750124 509
540194 369647 470
498302 260971 449
206270 5978 383
299240 542235 470
724061 150316 509
816701 421163 509
229196 483059 449
898904 774126 525
985294 993920 396
553824 641944 509
640512 518468 509
368901 117056 443
237782 145141 443
399926 367680 436
215609 63313 383
530096 963752 525
327395 748719 509
569816 965452 525
403666 120317 443
183154 346864 443
229215 227252 355
151044 236482 443
812874 104750 509
697010 251829 509
704230 391234 509
43375 934321 525
892230 743820 525
73128 57155 335
662861 161479 509
602897 59903 470
315405 621877 470
33789 288489 443
433848 620508 470
52769 960928 525
873280 776288 525
843229 10577 525
897489 238407 525
37110 211630 383
283932 310011 389
329749 426361 449
167067 742503 509
31206 529623 470
244750 464340 449
958048 555167 525
32992 495786 449
642498 957043 525
81247 919141 525
137336 482734 449
161208 435268 449
317316 699898 509
255256 145163 443
854887 817733 525
915615 684803 525
811212 953822 525
793324 334957 509
716042 910235 525
895351 609804 525
968748 730673 525
976854 41724 525
867566 669982 525
815407 668349 504
463952 824543 509
741896 940876 525
315417 31790 443
989000 673901 525
295696 47022 443
396688 182310 443
7537 386282 443
345097 226777 443
612877 598254 403
83011 718978 509
747436 841645 525
281882 200375 443
139125 712342 509
98863 89637 333
706052 931394 525
464763 285432 449
623084 54955 470
939843 693057 525
712797 214819 509
6415 958047 525
798714 995502 525
555962 449124 470
835254 514120 509
278758 131940 443
84739 788812 509
92201 592976 470
213798 916105 525
310137 722977 509
921218 323597 525
597458 862100 525
347339 200999 443
933635 917887 476
242182 169106 443
870784 738839 525
781824 389712 509
956733 754679 525
898280 331610 525
5201 982603 525
720374 571525 509
336686 491062 449
676203 531213 509
420839 245860 449